Nesting Nooks: Exploring Squirrel Habitat & Activity
…
Based on this output, we see that almost all of our results are
statistically significant at the 5% level. A squirrel spotted on the
ground plane is most likely to be seen
running, climbing, eating, or
foraging. The effect of chasing was not
statistically significant at the 0.05 level. Squirrels spotted on the
ground plane also have a likelihood to be spotted at
night.

Let’s look at some model diagnostics.

squirrel_census |> 
  modelr::add_predictions(fit_logistic) |> 
  mutate(fitted_prob = boot::inv.logit(pred))
## # A tibble: 2,824 × 38
##        x     y unique_squirrel_id hectare shift date      
##    <dbl> <dbl> <chr>              <chr>   <chr> <date>    
##  1 -74.0  40.8 13E-AM-1017-05     13E     AM    2018-10-17
##  2 -74.0  40.8 36H-AM-1010-02     36H     AM    2018-10-10
##  3 -74.0  40.8 33F-AM-1008-02     33F     AM    2018-10-08
##  4 -74.0  40.8 21C-PM-1006-01     21C     PM    2018-10-06
##  5 -74.0  40.8 11D-AM-1010-03     11D     AM    2018-10-10
##  6 -74.0  40.8 20B-PM-1013-05     20B     PM    2018-10-13
##  7 -74.0  40.8 22F-PM-1014-06     22F     PM    2018-10-14
##  8 -74.0  40.8 36I-PM-1007-01     36I     PM    2018-10-07
##  9 -74.0  40.8 5C-PM-1010-09      05C     PM    2018-10-10
## 10 -74.0  40.8 7H-AM-1006-05      07H     AM    2018-10-06
## # ℹ 2,814 more rows
## # ℹ 32 more variables: hectare_squirrel_number <dbl>, age <chr>,
## #   primary_fur_color <chr>, highlight_fur_color <chr>,
## #   combination_of_primary_and_highlight_color <chr>, color_notes <chr>,
## #   location <chr>, above_ground_sighter_measurement <chr>,
## #   specific_location <chr>, running <lgl>, chasing <lgl>, climbing <lgl>,
## #   eating <lgl>, foraging <lgl>, other_activities <chr>, kuks <lgl>, …
…
